#install.packages("phytools")#
#install.packages("maps")#
#install.packages("ape")#
#install.packages()#
#
setwd("/Users/oscar/Dropbox/Costus_local/pollination_mapping")#
dir()#
#
library(phytools)#
#
# read tree and plot#
#
tree <- read.nexus("test.tre")#
plot(tree,cex=0.7, show.node.label=T)#
axisPhylo()#
#
#Make list of taxa and drop outgroups#
sort(tree$tip.label)#
tree <- drop.tip(tree, c("Canna_indica","Canna_sp","Costus_dubius_98074","Costus_lucanusianus_99103","Costus_afer_98068","Curcuma_longa","Dichorisandra_thyrsiflora","Heliconia_sp","Maranta_leuconeura","Musa_basjoo","Orchidantha_fimbriata","Strelitzia_reginae","Typha_latifolia","Zingiber_officinale"))#
#
plot(tree,cex=0.7, show.node.label=T)#
axisPhylo()#
# read charater states#
poll <- read.csv("costus_pollination.csv", row.names = 1)#
poll <- as.matrix(poll)[,1]#
#
# perform simulations for ancestral reconstruction#
#
costus_trees <- make.simmap(tree,poll,model="ARD",nsim=100)#
transitions <- as.data.frame(countSimmap(costus_trees)) #
obj <- summary(costus_trees)#
#
hist(transitions$Tr.B.H)
transitions
bee_2_humm <- as.data.frame(transitions$Tr.B.H)
humm_2_bee <- as.data.frame(transitions$Tr.H.B)
bee_2_humm$type <- 'bee_to_hummingbird'#
humm_2_bee$type <- 'hummingbird_to_bee'
transitions <- rbind(bee_2_humm, humm_2_bee)
bee_2_humm
humm_2_bee
names(bee_2_humm) = "n"
bee_2_humm
bee_2_humm <- as.data.frame(transitions$Tr.B.H)
bee_2_humm <- as.data.frame(transitions$Tr.B.H)
bee_2_humm
bee_2_humm <- as.data.frame(transitions$Tr.B.H)#
names(bee_2_humm) = "n"#
humm_2_bee <- as.data.frame(transitions$Tr.H.B)#
names(humm_2_bee) = "n"#
#
bee_2_humm$type <- 'bee_to_hummingbird'#
humm_2_bee$type <- 'hummingbird_to_bee'
transitions <- rbind(bee_2_humm, humm_2_bee)
transitions <- rbind(bee_2_humm, humm_2_bee)
library(ggplot)
library(ggplot2)
transitions
ggplot(transitions, aes(n, fill=type))
ggplot2(transitions, aes(n, fill=type))
ggplot(transitions, aes(n, fill=type)) + geom_density(alpha = 0.2)
ggplot(transitions, aes(n, fill=type)) + geom_histogram(alpha = 0.2)
ggplot(transitions, aes(n, fill=type)) + geom_histogram(alpha = 1)
ggplot(transitions, aes(n, fill=type)) + geom_histogram(alpha = 1, aes(y = ..density..))
ggplot(transitions, aes(n, fill=type)) + geom_histogram(alpha = 1, aes(y = ..density..))
ggplot(transitions, aes(n, fill=type)) + geom_histogram()
library(phytools)#
library(ggplot2)#
#
# read tree and plot#
#
tree <- read.nexus("test.tre")#
plot(tree,cex=0.7, show.node.label=T)#
axisPhylo()#
#
#Make list of taxa and drop outgroups#
sort(tree$tip.label)#
tree <- drop.tip(tree, c("Canna_indica","Canna_sp","Costus_dubius_98074","Costus_lucanusianus_99103","Costus_afer_98068","Curcuma_longa","Dichorisandra_thyrsiflora","Heliconia_sp","Maranta_leuconeura","Musa_basjoo","Orchidantha_fimbriata","Strelitzia_reginae","Typha_latifolia","Zingiber_officinale"))#
#
plot(tree,cex=0.7, show.node.label=T)#
axisPhylo()#
# read charater states#
poll <- read.csv("costus_pollination.csv", row.names = 1)#
poll <- as.matrix(poll)[,1]#
#
# perform simulations for ancestral reconstruction#
#
costus_trees <- make.simmap(tree,poll,model="ARD",nsim=100)#
transitions <- as.data.frame(countSimmap(costus_trees)) #
obj <- summary(costus_trees)#
#
hist(transitions$Tr.B.H)#
#
bee_2_humm <- as.data.frame(transitions$Tr.B.H)#
names(bee_2_humm) = "n"#
humm_2_bee <- as.data.frame(transitions$Tr.H.B)#
names(humm_2_bee) = "n"#
#
bee_2_humm$type <- 'bee_to_hummingbird'#
humm_2_bee$type <- 'hummingbird_to_bee'#
#
transitions <- rbind(bee_2_humm, humm_2_bee)#
#
ggplot(transitions, aes(n, fill=type)) + geom_histogram()
ggplot(transitions, aes(n, fill=type)) + geom_histogram(aes(y = ..density..), position = 'identity')
costus_trees <- make.simmap(tree,poll,model="ARD",nsim=100)#
transitions <- as.data.frame(countSimmap(costus_trees)) #
obj <- summary(costus_trees)#
#
hist(transitions$Tr.B.H)#
#
bee_2_humm <- as.data.frame(transitions$Tr.B.H)#
names(bee_2_humm) = "n"#
humm_2_bee <- as.data.frame(transitions$Tr.H.B)#
names(humm_2_bee) = "n"#
#
bee_2_humm$type <- 'bee_to_hummingbird'#
humm_2_bee$type <- 'hummingbird_to_bee'#
#
transitions2 <- rbind(bee_2_humm, humm_2_bee)#
#
ggplot(transitions2, aes(n, fill=type)) + geom_histogram(aes(y = ..density..), position = 'identity')
hist(transitions$Tr.B.H)
costus_trees <- make.simmap(tree,poll,model="ARD",nsim=1000)#
transitions <- as.data.frame(countSimmap(costus_trees)) #
obj <- summary(costus_trees)#
#
hist(transitions$Tr.B.H)
bee_2_humm <- as.data.frame(transitions$Tr.B.H)#
names(bee_2_humm) = "n"#
humm_2_bee <- as.data.frame(transitions$Tr.H.B)#
names(humm_2_bee) = "n"#
#
bee_2_humm$type <- 'bee_to_hummingbird'#
humm_2_bee$type <- 'hummingbird_to_bee'#
#
transitions2 <- rbind(bee_2_humm, humm_2_bee)#
#
ggplot(transitions2, aes(n, fill=type)) + geom_histogram(aes(y = ..density..), position = 'identity')
hist(transitions$Tr.B.H)
ggplot(transitions2, aes(n, fill=type)) + geom_histogram(binwidth=1)
ggsave("transitions.pdf", plot)
ggsave("transitions.pdf", plot = last_pl0t())
ggsave("transitions.pdf", plot = last_plot())
